
----------------
end1 end2 weight 
----------------
0     13    655
0     2     635
0     12    610
0     1     510
0     14    480
0     17    450
0     20    380
0     9     370
0     16    255
0     19    240
1     8     605
1     4     585
1     7     500
1     15    480
1     6     480
1     5     475
1     18    445
1     11    440
1     3     415
1     10    380
2     18    750
2     10    640
2     3     605
2     11    575
2     6     570
2     7     540
2     5     495
2     15    420
2     4     390
2     8     295
3     13    555
3     12    520
3     14    380
3     17    345
3     20    280
3     9     280
3     16    235
3     19    140
4     12    835
4     13    750
4     17    660
4     16    650
4     9     590
4     14    575
4     20    480
4     19    480
5     13    615
5     12    605
5     14    440
5     17    430
5     16    370
5     9     365
5     20    340
5     19    255
6     13    625
6     12    590
6     14    455
6     17    420
6     20    350
6     9     350
6     16    320
6     19    205
7     13    645
7     12    610
7     14    465
7     17    440
7     20    370
7     9     370
7     16    350
7     19    220
8     12    865
8     13    775
8     17    690
8     16    680
8     9     625
8     14    600
8     19    515
8     20    505
9     15    475
9     11    300
9     10    240
9     18    235
10    13    515
10    12    480
10    14    345
10    17    310
10    20    240
10    16    175
10    19    100
11    13    585
11    12    545
11    14    415
11    17    380
11    20    310
11    16    265
11    19    170
12    15    715
12    18    485
13    15    650
13    18    525
14    15    475
14    18    405
15    17    545
15    16    485
15    19    395
15    20    380
16    18    87
17    18    315
18    20    305
18    19    155

The cost of the best cut is: 49892.0